EESchema Schematic File Version 2
LIBS:power
LIBS:device
LIBS:switches
LIBS:relays
LIBS:motors
LIBS:transistors
LIBS:conn
LIBS:linear
LIBS:regul
LIBS:74xx
LIBS:cmos4000
LIBS:adc-dac
LIBS:memory
LIBS:xilinx
LIBS:microcontrollers
LIBS:dsp
LIBS:microchip
LIBS:analog_switches
LIBS:motorola
LIBS:texas
LIBS:intel
LIBS:audio
LIBS:interface
LIBS:digital-audio
LIBS:philips
LIBS:display
LIBS:cypress
LIBS:siliconi
LIBS:opto
LIBS:atmel
LIBS:contrib
LIBS:valves
LIBS:CANTesterFrontend-cache
EELAYER 25 0
EELAYER END
$Descr A4 11693 8268
encoding utf-8
Sheet 1 1
Title ""
Date ""
Rev ""
Comp ""
Comment1 ""
Comment2 ""
Comment3 ""
Comment4 ""
$EndDescr
$Comp
L DB9_Male J1
U 1 1 5A68DA45
P 6600 7050
F 0 "J1" H 6600 7600 50  0000 C CNN
F 1 "DB9_Male" H 6600 6475 50  0000 C CNN
F 2 "" H 6600 7050 50  0001 C CNN
F 3 "" H 6600 7050 50  0001 C CNN
	1    6600 7050
	1    0    0    -1  
$EndComp
$Comp
L 74LS157 U2
U 1 1 5A68DBB2
P 9550 1300
F 0 "U2" H 9600 1450 50  0000 C CNN
F 1 "74LS157" H 9600 1150 50  0000 C CNN
F 2 "Housings_SSOP:TSSOP-16_4.4x5mm_Pitch0.65mm" H 9550 1300 50  0001 C CNN
F 3 "" H 9550 1300 50  0001 C CNN
	1    9550 1300
	-1   0    0    -1  
$EndComp
Wire Wire Line
	8200 800  8800 800 
Wire Wire Line
	8200 1050 8800 1050
Wire Wire Line
	8200 1300 8800 1300
Wire Wire Line
	8200 1550 8800 1550
Text Label 8700 800  2    60   ~ 0
SLCAN_RXD
Text Label 8700 1050 2    60   ~ 0
SLCAN_TXD
Text Label 8700 1300 2    60   ~ 0
SLCAN_RTS
Text Label 8700 1550 2    60   ~ 0
SLCAN_CTS
Wire Wire Line
	9350 3700 9450 3700
Wire Wire Line
	9350 3900 9450 3900
Wire Wire Line
	9350 4100 9450 4100
Wire Wire Line
	9350 4300 9450 4300
Text Label 9450 3700 0    60   ~ 0
RS232_RXD
Text Label 9450 3900 0    60   ~ 0
RS232_CTS
Text Label 9450 4100 0    60   ~ 0
RS232_TXD
Text Label 9450 4300 0    60   ~ 0
RS232_RTS
Wire Wire Line
	6300 7450 6150 7450
Wire Wire Line
	6300 7350 6150 7350
Wire Wire Line
	6300 7250 6150 7250
Wire Wire Line
	6300 7150 6150 7150
Wire Wire Line
	6300 7050 6150 7050
Wire Wire Line
	6300 6950 6150 6950
Wire Wire Line
	6300 6850 6150 6850
Wire Wire Line
	6300 6750 6150 6750
Wire Wire Line
	6300 6650 6150 6650
Text Label 6150 6650 2    60   ~ 0
DB9_P5
Text Label 6150 6750 2    60   ~ 0
DB9_P9
Text Label 6150 6850 2    60   ~ 0
DB9_P4
Text Label 6150 7150 2    60   ~ 0
DB9_P7
Text Label 6150 6950 2    60   ~ 0
DB9_P8
Text Label 6150 7050 2    60   ~ 0
DB9_P3
Text Label 6150 7250 2    60   ~ 0
DB9_P2
Text Label 6150 7350 2    60   ~ 0
DB9_P6
Text Label 6150 7450 2    60   ~ 0
DB9_P1
Wire Wire Line
	10300 750  10400 750 
Wire Wire Line
	10300 850  10400 850 
Wire Wire Line
	10300 1000 10400 1000
Wire Wire Line
	10300 1100 10400 1100
Wire Wire Line
	10300 1250 10400 1250
Wire Wire Line
	10300 1350 10400 1350
Wire Wire Line
	10300 1500 10400 1500
Wire Wire Line
	10300 1600 10400 1600
Wire Wire Line
	10300 1750 10400 1750
Wire Wire Line
	10300 1850 10400 1850
Text Label 10400 750  0    60   ~ 0
RS232_RXD
Text Label 10400 850  0    60   ~ 0
TTL_RXD
Text Label 10400 1000 0    60   ~ 0
RS232_TXD
Text Label 10400 1100 0    60   ~ 0
TTL_TXD
Text Label 10400 1250 0    60   ~ 0
RS232_RTS
Text Label 10400 1350 0    60   ~ 0
TTL_RTS
Text Label 10400 1500 0    60   ~ 0
RS232_CTS
Text Label 10400 1600 0    60   ~ 0
TTL_CTS
Wire Wire Line
	7750 3700 7650 3700
Wire Wire Line
	7750 3900 7650 3900
Wire Wire Line
	7750 4100 7650 4100
Wire Wire Line
	7750 4300 7650 4300
Text Label 7650 3700 2    60   ~ 0
TTL_RXD
Text Label 7650 3900 2    60   ~ 0
TTL_CTS
Text Label 7650 4100 2    60   ~ 0
TTL_TXD
Text Label 7650 4300 2    60   ~ 0
TTL_RTS
Wire Wire Line
	2650 -1100 2550 -1100
Wire Wire Line
	2550 -1500 2650 -1500
Wire Wire Line
	2650 -1300 2550 -1300
Wire Wire Line
	2650 -1400 2550 -1400
Wire Wire Line
	2650 -1200 2550 -1200
Text Label 2550 -1200 2    60   ~ 0
TTL_RTS
Text Label 2550 -1400 2    60   ~ 0
TTL_TXD
Text Label 2550 -1300 2    60   ~ 0
TTL_CTS
Text Label 2550 -1500 2    60   ~ 0
TTL_RXD
$Comp
L VCC #PWR01
U 1 1 5A68E7F0
P 8550 2400
F 0 "#PWR01" H 8550 2250 50  0001 C CNN
F 1 "VCC" H 8550 2550 50  0000 C CNN
F 2 "" H 8550 2400 50  0001 C CNN
F 3 "" H 8550 2400 50  0001 C CNN
	1    8550 2400
	-1   0    0    -1  
$EndComp
$Comp
L VCC #PWR02
U 1 1 5A68E892
P 2550 -1700
F 0 "#PWR02" H 2550 -1850 50  0001 C CNN
F 1 "VCC" H 2550 -1550 50  0000 C CNN
F 2 "" H 2550 -1700 50  0001 C CNN
F 3 "" H 2550 -1700 50  0001 C CNN
	1    2550 -1700
	1    0    0    -1  
$EndComp
$Comp
L GND #PWR03
U 1 1 5A68E910
P 2550 -900
F 0 "#PWR03" H 2550 -1150 50  0001 C CNN
F 1 "GND" H 2550 -1050 50  0000 C CNN
F 2 "" H 2550 -900 50  0001 C CNN
F 3 "" H 2550 -900 50  0001 C CNN
	1    2550 -900
	1    0    0    -1  
$EndComp
Wire Wire Line
	2550 -1700 2550 -1600
Wire Wire Line
	2550 -1600 2650 -1600
$Comp
L GND #PWR04
U 1 1 5A68EAD8
P 8550 4800
F 0 "#PWR04" H 8550 4550 50  0001 C CNN
F 1 "GND" H 8550 4650 50  0000 C CNN
F 2 "" H 8550 4800 50  0001 C CNN
F 3 "" H 8550 4800 50  0001 C CNN
	1    8550 4800
	-1   0    0    -1  
$EndComp
Wire Wire Line
	10400 1850 10400 1950
$Comp
L GND #PWR05
U 1 1 5A68EC51
P 10400 1950
F 0 "#PWR05" H 10400 1700 50  0001 C CNN
F 1 "GND" H 10400 1800 50  0000 C CNN
F 2 "" H 10400 1950 50  0001 C CNN
F 3 "" H 10400 1950 50  0001 C CNN
	1    10400 1950
	1    0    0    -1  
$EndComp
Text Label 10400 1750 0    60   ~ 0
SELECT_LEVEL
Text Label 2550 -1100 2    60   ~ 0
SELECT_LEVEL
Wire Wire Line
	2650 -1000 2550 -1000
Wire Wire Line
	2550 -1000 2550 -900
$Comp
L CP C5
U 1 1 5A68EF17
P 9550 2850
F 0 "C5" H 9575 2950 50  0000 L CNN
F 1 "CP" H 9575 2750 50  0000 L CNN
F 2 "Capacitors_SMD:CP_Elec_3x5.3" H 9588 2700 50  0001 C CNN
F 3 "" H 9550 2850 50  0001 C CNN
	1    9550 2850
	-1   0    0    -1  
$EndComp
$Comp
L CP C6
U 1 1 5A68EF5B
P 7550 2850
F 0 "C6" H 7575 2950 50  0000 L CNN
F 1 "CP" H 7575 2750 50  0000 L CNN
F 2 "Capacitors_SMD:CP_Elec_3x5.3" H 7588 2700 50  0001 C CNN
F 3 "" H 7550 2850 50  0001 C CNN
	1    7550 2850
	-1   0    0    -1  
$EndComp
$Comp
L CP C7
U 1 1 5A68EFCD
P 7500 3200
F 0 "C7" H 7525 3300 50  0000 L CNN
F 1 "CP" H 7525 3100 50  0000 L CNN
F 2 "Capacitors_SMD:CP_Elec_3x5.3" H 7538 3050 50  0001 C CNN
F 3 "" H 7500 3200 50  0001 C CNN
	1    7500 3200
	0    1    -1   0   
$EndComp
$Comp
L CP C8
U 1 1 5A68F01A
P 7500 3500
F 0 "C8" H 7525 3600 50  0000 L CNN
F 1 "CP" H 7525 3400 50  0000 L CNN
F 2 "Capacitors_SMD:CP_Elec_3x5.3" H 7538 3350 50  0001 C CNN
F 3 "" H 7500 3500 50  0001 C CNN
	1    7500 3500
	0    -1   1    0   
$EndComp
Wire Wire Line
	9550 3000 9350 3000
Wire Wire Line
	7750 2700 7550 2700
Wire Wire Line
	7750 3000 7550 3000
Wire Wire Line
	9350 2700 9550 2700
$Comp
L 74LS157 U1
U 1 1 5A68F49A
P 6650 1300
F 0 "U1" H 6700 1450 50  0000 C CNN
F 1 "74LS157" H 6700 1150 50  0000 C CNN
F 2 "Housings_SSOP:TSSOP-16_4.4x5mm_Pitch0.65mm" H 6650 1300 50  0001 C CNN
F 3 "" H 6650 1300 50  0001 C CNN
	1    6650 1300
	-1   0    0    -1  
$EndComp
$Comp
L LTC2875-S8 U3
U 1 1 5A68F61D
P 8550 5750
F 0 "U3" H 8150 6100 50  0000 L CNN
F 1 "LTC2875-S8" H 8650 6100 50  0000 L CNN
F 2 "Housings_SOIC:SOIC-8_3.9x4.9mm_Pitch1.27mm" H 8550 5250 50  0001 C CIN
F 3 "" H 8550 5750 50  0001 C CNN
	1    8550 5750
	1    0    0    -1  
$EndComp
$Comp
L MAX3232 U4
U 1 1 5A68F68B
P 8550 3600
F 0 "U4" H 8450 4725 50  0000 R CNN
F 1 "MAX3232" H 8450 4650 50  0000 R CNN
F 2 "Housings_SSOP:TSSOP-16_4.4x5mm_Pitch0.65mm" H 8600 2550 50  0001 L CNN
F 3 "" H 8550 3700 50  0001 C CNN
	1    8550 3600
	-1   0    0    -1  
$EndComp
Wire Wire Line
	7750 3200 7650 3200
Wire Wire Line
	7750 3500 7650 3500
Wire Wire Line
	7350 3200 7250 3200
Wire Wire Line
	7350 3500 7250 3500
$Comp
L VCC #PWR06
U 1 1 5A68FC4D
P 7250 3200
F 0 "#PWR06" H 7250 3050 50  0001 C CNN
F 1 "VCC" H 7250 3350 50  0000 C CNN
F 2 "" H 7250 3200 50  0001 C CNN
F 3 "" H 7250 3200 50  0001 C CNN
	1    7250 3200
	0    -1   1    0   
$EndComp
$Comp
L GND #PWR07
U 1 1 5A68FCF8
P 7250 3500
F 0 "#PWR07" H 7250 3250 50  0001 C CNN
F 1 "GND" H 7250 3350 50  0000 C CNN
F 2 "" H 7250 3500 50  0001 C CNN
F 3 "" H 7250 3500 50  0001 C CNN
	1    7250 3500
	0    1    -1   0   
$EndComp
Wire Wire Line
	5900 800  5800 800 
Wire Wire Line
	5900 1050 5800 1050
Wire Wire Line
	5900 1300 5800 1300
Wire Wire Line
	5900 1550 5800 1550
Text Label 5800 800  2    60   ~ 0
DB9_P2
Text Label 5800 1050 2    60   ~ 0
DB9_P3
Text Label 5800 1300 2    60   ~ 0
DB9_P7
Text Label 5800 1550 2    60   ~ 0
DB9_P8
Wire Wire Line
	7400 750  7500 750 
Wire Wire Line
	7400 850  8200 850 
Wire Wire Line
	7400 1000 7500 1000
Wire Wire Line
	7400 1100 8200 1100
Wire Wire Line
	8100 1250 7400 1250
Wire Wire Line
	7400 1350 8200 1350
Wire Wire Line
	7400 1500 7500 1500
Wire Wire Line
	7400 1600 8200 1600
Wire Wire Line
	7400 1750 7500 1750
Wire Wire Line
	7400 1850 7500 1850
Text Label 7500 750  0    60   ~ 0
CAN_L
Text Label 7500 850  0    60   ~ 0
SLCAN_RXD
$Comp
L C C1
U 1 1 5A690A5D
P 1600 1150
F 0 "C1" H 1625 1250 50  0000 L CNN
F 1 "100nF" H 1625 1050 50  0000 L CNN
F 2 "Capacitors_SMD:C_0805" H 1638 1000 50  0001 C CNN
F 3 "" H 1600 1150 50  0001 C CNN
	1    1600 1150
	1    0    0    -1  
$EndComp
$Comp
L C C2
U 1 1 5A690B7F
P 1900 1150
F 0 "C2" H 1925 1250 50  0000 L CNN
F 1 "100nF" H 1925 1050 50  0000 L CNN
F 2 "Capacitors_SMD:C_0805" H 1938 1000 50  0001 C CNN
F 3 "" H 1900 1150 50  0001 C CNN
	1    1900 1150
	1    0    0    -1  
$EndComp
$Comp
L C C3
U 1 1 5A690CC1
P 2200 1150
F 0 "C3" H 2225 1250 50  0000 L CNN
F 1 "100nF" H 2225 1050 50  0000 L CNN
F 2 "Capacitors_SMD:C_0805" H 2238 1000 50  0001 C CNN
F 3 "" H 2200 1150 50  0001 C CNN
	1    2200 1150
	1    0    0    -1  
$EndComp
$Comp
L C C4
U 1 1 5A690D10
P 2500 1150
F 0 "C4" H 2525 1250 50  0000 L CNN
F 1 "100nF" H 2525 1050 50  0000 L CNN
F 2 "Capacitors_SMD:C_0805" H 2538 1000 50  0001 C CNN
F 3 "" H 2500 1150 50  0001 C CNN
	1    2500 1150
	1    0    0    -1  
$EndComp
$Comp
L VCC #PWR08
U 1 1 5A691A63
P 8550 5350
F 0 "#PWR08" H 8550 5200 50  0001 C CNN
F 1 "VCC" H 8550 5500 50  0000 C CNN
F 2 "" H 8550 5350 50  0001 C CNN
F 3 "" H 8550 5350 50  0001 C CNN
	1    8550 5350
	-1   0    0    -1  
$EndComp
$Comp
L GND #PWR09
U 1 1 5A691B16
P 8550 6150
F 0 "#PWR09" H 8550 5900 50  0001 C CNN
F 1 "GND" H 8550 6000 50  0000 C CNN
F 2 "" H 8550 6150 50  0001 C CNN
F 3 "" H 8550 6150 50  0001 C CNN
	1    8550 6150
	-1   0    0    -1  
$EndComp
Text Label 7500 1000 0    60   ~ 0
GND
Text Label 7500 1100 0    60   ~ 0
SLCAN_TXD
Text Label 7500 1250 0    60   ~ 0
CAN_H
Text Label 7500 1350 0    60   ~ 0
SLCAN_RTS
Text Label 7500 1500 0    60   ~ 0
N.C.
Text Label 7500 1600 0    60   ~ 0
SLCAN_CTS
$Comp
L VCC #PWR010
U 1 1 5A692155
P 1600 1000
F 0 "#PWR010" H 1600 850 50  0001 C CNN
F 1 "VCC" H 1600 1150 50  0000 C CNN
F 2 "" H 1600 1000 50  0001 C CNN
F 3 "" H 1600 1000 50  0001 C CNN
	1    1600 1000
	1    0    0    -1  
$EndComp
$Comp
L VCC #PWR011
U 1 1 5A6922DA
P 1900 1000
F 0 "#PWR011" H 1900 850 50  0001 C CNN
F 1 "VCC" H 1900 1150 50  0000 C CNN
F 2 "" H 1900 1000 50  0001 C CNN
F 3 "" H 1900 1000 50  0001 C CNN
	1    1900 1000
	1    0    0    -1  
$EndComp
$Comp
L VCC #PWR012
U 1 1 5A69230F
P 2200 1000
F 0 "#PWR012" H 2200 850 50  0001 C CNN
F 1 "VCC" H 2200 1150 50  0000 C CNN
F 2 "" H 2200 1000 50  0001 C CNN
F 3 "" H 2200 1000 50  0001 C CNN
	1    2200 1000
	1    0    0    -1  
$EndComp
$Comp
L VCC #PWR013
U 1 1 5A692344
P 2500 1000
F 0 "#PWR013" H 2500 850 50  0001 C CNN
F 1 "VCC" H 2500 1150 50  0000 C CNN
F 2 "" H 2500 1000 50  0001 C CNN
F 3 "" H 2500 1000 50  0001 C CNN
	1    2500 1000
	1    0    0    -1  
$EndComp
$Comp
L GND #PWR014
U 1 1 5A6923CD
P 1600 1300
F 0 "#PWR014" H 1600 1050 50  0001 C CNN
F 1 "GND" H 1600 1150 50  0000 C CNN
F 2 "" H 1600 1300 50  0001 C CNN
F 3 "" H 1600 1300 50  0001 C CNN
	1    1600 1300
	1    0    0    -1  
$EndComp
$Comp
L GND #PWR015
U 1 1 5A692402
P 1900 1300
F 0 "#PWR015" H 1900 1050 50  0001 C CNN
F 1 "GND" H 1900 1150 50  0000 C CNN
F 2 "" H 1900 1300 50  0001 C CNN
F 3 "" H 1900 1300 50  0001 C CNN
	1    1900 1300
	1    0    0    -1  
$EndComp
$Comp
L GND #PWR016
U 1 1 5A692445
P 2200 1300
F 0 "#PWR016" H 2200 1050 50  0001 C CNN
F 1 "GND" H 2200 1150 50  0000 C CNN
F 2 "" H 2200 1300 50  0001 C CNN
F 3 "" H 2200 1300 50  0001 C CNN
	1    2200 1300
	1    0    0    -1  
$EndComp
$Comp
L GND #PWR017
U 1 1 5A69247A
P 2500 1300
F 0 "#PWR017" H 2500 1050 50  0001 C CNN
F 1 "GND" H 2500 1150 50  0000 C CNN
F 2 "" H 2500 1300 50  0001 C CNN
F 3 "" H 2500 1300 50  0001 C CNN
	1    2500 1300
	1    0    0    -1  
$EndComp
Wire Wire Line
	9150 5650 9050 5650
Wire Wire Line
	9150 5850 9050 5850
Text Label 9150 5650 0    60   ~ 0
CAN_H
Text Label 9150 5850 0    60   ~ 0
CAN_L
$Comp
L R R1
U 1 1 5A692E7A
P 9500 5050
F 0 "R1" V 9580 5050 50  0000 C CNN
F 1 "120" V 9500 5050 50  0000 C CNN
F 2 "Resistors_SMD:R_0805" V 9430 5050 50  0001 C CNN
F 3 "" H 9500 5050 50  0001 C CNN
	1    9500 5050
	0    -1   -1   0   
$EndComp
$Comp
L Conn_01x07_Male J5
U 1 1 5A6904AD
P 2850 -1300
F 0 "J5" H 2850 -900 50  0000 C CNN
F 1 "Conn_01x07_Male" H 2850 -1700 50  0000 C CNN
F 2 "Pin_Headers:Pin_Header_Straight_1x07_Pitch2.54mm" H 2850 -1300 50  0001 C CNN
F 3 "" H 2850 -1300 50  0001 C CNN
	1    2850 -1300
	-1   0    0    -1  
$EndComp
Text Label 5150 6950 0    60   ~ 0
DB9_P2
Text Label 4450 7050 2    60   ~ 0
DB9_P3
$Comp
L Conn_02x05_Odd_Even J4
U 1 1 5A6911C7
P 4750 7150
F 0 "J4" H 4800 7450 50  0000 C CNN
F 1 "Conn_02x05_Odd_Even" H 4800 6850 50  0000 C CNN
F 2 "Socket_Strips:Socket_Strip_Straight_2x05_Pitch2.54mm" H 4750 7150 50  0001 C CNN
F 3 "" H 4750 7150 50  0001 C CNN
	1    4750 7150
	1    0    0    -1  
$EndComp
Wire Wire Line
	4550 6950 4450 6950
Wire Wire Line
	4450 7050 4550 7050
Wire Wire Line
	4450 7150 4550 7150
Wire Wire Line
	4550 7250 4450 7250
Wire Wire Line
	4550 7350 4450 7350
Wire Wire Line
	5050 7250 5150 7250
Wire Wire Line
	5050 7150 5150 7150
Wire Wire Line
	5050 7050 5150 7050
Wire Wire Line
	5050 6950 5150 6950
Text Label 4450 6950 2    60   ~ 0
DB9_P1
Text Label 4450 7150 2    60   ~ 0
DB9_P5
Text Label 4450 7250 2    60   ~ 0
DB9_P7
Text Label 4450 7350 2    60   ~ 0
DB9_P9
Text Label 5150 7050 0    60   ~ 0
DB9_P4
Text Label 5150 7150 0    60   ~ 0
DB9_P6
Text Label 5150 7250 0    60   ~ 0
DB9_P8
$Comp
L Conn_01x02_Male J2
U 1 1 5A6929BB
P 10850 5450
F 0 "J2" H 10850 5550 50  0000 C CNN
F 1 "BNC_CAN_H" H 10850 5250 50  0000 C CNN
F 2 "Pin_Headers:Pin_Header_Straight_1x02_Pitch2.54mm" H 10850 5450 50  0001 C CNN
F 3 "" H 10850 5450 50  0001 C CNN
	1    10850 5450
	-1   0    0    -1  
$EndComp
$Comp
L Conn_01x02_Male J3
U 1 1 5A692A61
P 10850 5950
F 0 "J3" H 10850 6050 50  0000 C CNN
F 1 "BNC_CAN_L" H 10850 5750 50  0000 C CNN
F 2 "Pin_Headers:Pin_Header_Straight_1x02_Pitch2.54mm" H 10850 5950 50  0001 C CNN
F 3 "" H 10850 5950 50  0001 C CNN
	1    10850 5950
	-1   0    0    -1  
$EndComp
Wire Wire Line
	8200 850  8200 800 
Wire Wire Line
	8200 1100 8200 1050
Wire Wire Line
	8200 1350 8200 1300
Wire Wire Line
	8200 1600 8200 1550
Wire Wire Line
	8150 750  7600 750 
Wire Wire Line
	10650 5450 10350 5450
Wire Wire Line
	10650 5550 10350 5550
Wire Wire Line
	10350 5550 10350 5650
Wire Wire Line
	10650 6050 10350 6050
Wire Wire Line
	10350 6050 10350 6150
Wire Wire Line
	10650 5950 10350 5950
Text Label 10350 5450 2    60   ~ 0
CAN_H
Text Label 10350 5950 2    60   ~ 0
CAN_L
Wire Wire Line
	8050 5550 7950 5550
Wire Wire Line
	8050 5650 7950 5650
Text Label 7950 5550 2    60   ~ 0
CAN_TXD
Text Label 7950 5650 2    60   ~ 0
CAN_RXD
$Comp
L GND #PWR018
U 1 1 5A695DBD
P 10350 5650
F 0 "#PWR018" H 10350 5400 50  0001 C CNN
F 1 "GND" H 10350 5500 50  0000 C CNN
F 2 "" H 10350 5650 50  0001 C CNN
F 3 "" H 10350 5650 50  0001 C CNN
	1    10350 5650
	-1   0    0    -1  
$EndComp
$Comp
L GND #PWR019
U 1 1 5A695DFE
P 10350 6150
F 0 "#PWR019" H 10350 5900 50  0001 C CNN
F 1 "GND" H 10350 6000 50  0000 C CNN
F 2 "" H 10350 6150 50  0001 C CNN
F 3 "" H 10350 6150 50  0001 C CNN
	1    10350 6150
	-1   0    0    -1  
$EndComp
$Comp
L AT90CAN64-16AU U5
U 1 1 5A69784A
P 2950 4550
F 0 "U5" H 1800 6450 50  0000 L BNN
F 1 "AT90CAN64-16AU" H 4100 2600 50  0000 R BNN
F 2 "Housings_QFP:TQFP-64_7x7mm_Pitch0.4mm" H 3000 4550 50  0001 C CNN
F 3 "" H 2950 4550 50  0001 C CNN
	1    2950 4550
	1    0    0    -1  
$EndComp
Wire Wire Line
	4250 6050 4350 6050
Wire Wire Line
	4250 6150 4350 6150
Text Label 4350 6050 0    60   ~ 0
CAN_TX
Text Label 4350 6150 0    60   ~ 0
CAN_RX
$Comp
L C C11
U 1 1 5A698FF6
P 2800 1150
F 0 "C11" H 2825 1250 50  0000 L CNN
F 1 "100nF" H 2825 1050 50  0000 L CNN
F 2 "Capacitors_SMD:C_0805" H 2838 1000 50  0001 C CNN
F 3 "" H 2800 1150 50  0001 C CNN
	1    2800 1150
	1    0    0    -1  
$EndComp
$Comp
L VCC #PWR020
U 1 1 5A69904E
P 2800 1000
F 0 "#PWR020" H 2800 850 50  0001 C CNN
F 1 "VCC" H 2800 1150 50  0000 C CNN
F 2 "" H 2800 1000 50  0001 C CNN
F 3 "" H 2800 1000 50  0001 C CNN
	1    2800 1000
	1    0    0    -1  
$EndComp
$Comp
L GND #PWR021
U 1 1 5A699095
P 2800 1300
F 0 "#PWR021" H 2800 1050 50  0001 C CNN
F 1 "GND" H 2800 1150 50  0000 C CNN
F 2 "" H 2800 1300 50  0001 C CNN
F 3 "" H 2800 1300 50  0001 C CNN
	1    2800 1300
	1    0    0    -1  
$EndComp
$Comp
L Conn_02x03_Odd_Even J6
U 1 1 5A699458
P 3950 1200
F 0 "J6" H 4000 1400 50  0000 C CNN
F 1 "ISP6" H 4000 1000 50  0000 C CNN
F 2 "Socket_Strips:Socket_Strip_Straight_2x03_Pitch2.54mm" H 3950 1200 50  0001 C CNN
F 3 "" H 3950 1200 50  0001 C CNN
	1    3950 1200
	1    0    0    -1  
$EndComp
$Comp
L Crystal Y1
U 1 1 5A699630
P 1100 3350
F 0 "Y1" H 1100 3500 50  0000 C CNN
F 1 "16MHz" H 1100 3200 50  0000 C CNN
F 2 "Crystals:Crystal_HC49-U_Vertical" H 1100 3350 50  0001 C CNN
F 3 "" H 1100 3350 50  0001 C CNN
	1    1100 3350
	1    0    0    -1  
$EndComp
$Comp
L R R2
U 1 1 5A699779
P 1550 2600
F 0 "R2" V 1630 2600 50  0000 C CNN
F 1 "10k" V 1550 2600 50  0000 C CNN
F 2 "Resistors_SMD:R_0805" V 1480 2600 50  0001 C CNN
F 3 "" H 1550 2600 50  0001 C CNN
	1    1550 2600
	1    0    0    -1  
$EndComp
Wire Wire Line
	1450 2850 1650 2850
Wire Wire Line
	1550 2850 1550 2750
Connection ~ 1550 2850
Wire Wire Line
	2650 2550 2650 2450
Wire Wire Line
	2650 2450 2750 2450
Wire Wire Line
	2750 2450 2750 2550
Wire Wire Line
	2700 2450 2700 2350
Connection ~ 2700 2450
Wire Wire Line
	1550 2450 1550 2350
$Comp
L VCC #PWR022
U 1 1 5A699F44
P 1550 2350
F 0 "#PWR022" H 1550 2200 50  0001 C CNN
F 1 "VCC" H 1550 2500 50  0000 C CNN
F 2 "" H 1550 2350 50  0001 C CNN
F 3 "" H 1550 2350 50  0001 C CNN
	1    1550 2350
	1    0    0    -1  
$EndComp
$Comp
L VCC #PWR023
U 1 1 5A699F9B
P 2700 2350
F 0 "#PWR023" H 2700 2200 50  0001 C CNN
F 1 "VCC" H 2700 2500 50  0000 C CNN
F 2 "" H 2700 2350 50  0001 C CNN
F 3 "" H 2700 2350 50  0001 C CNN
	1    2700 2350
	1    0    0    -1  
$EndComp
Wire Wire Line
	1650 3150 800  3150
Wire Wire Line
	800  3150 800  3450
Wire Wire Line
	800  3350 950  3350
Wire Wire Line
	1650 3250 1400 3250
Wire Wire Line
	1400 3250 1400 3450
Wire Wire Line
	1400 3350 1250 3350
$Comp
L C C9
U 1 1 5A69A47E
P 800 3600
F 0 "C9" H 825 3700 50  0000 L CNN
F 1 "22pF" H 825 3500 50  0000 L CNN
F 2 "Capacitors_SMD:C_0805" H 838 3450 50  0001 C CNN
F 3 "" H 800 3600 50  0001 C CNN
	1    800  3600
	1    0    0    -1  
$EndComp
$Comp
L C C10
U 1 1 5A69A56A
P 1400 3600
F 0 "C10" H 1425 3700 50  0000 L CNN
F 1 "22pF" H 1425 3500 50  0000 L CNN
F 2 "Capacitors_SMD:C_0805" H 1438 3450 50  0001 C CNN
F 3 "" H 1400 3600 50  0001 C CNN
	1    1400 3600
	1    0    0    -1  
$EndComp
Connection ~ 800  3350
Connection ~ 1400 3350
$Comp
L GND #PWR024
U 1 1 5A69A8E8
P 800 3750
F 0 "#PWR024" H 800 3500 50  0001 C CNN
F 1 "GND" H 800 3600 50  0000 C CNN
F 2 "" H 800 3750 50  0001 C CNN
F 3 "" H 800 3750 50  0001 C CNN
	1    800  3750
	1    0    0    -1  
$EndComp
$Comp
L GND #PWR025
U 1 1 5A69A977
P 1400 3750
F 0 "#PWR025" H 1400 3500 50  0001 C CNN
F 1 "GND" H 1400 3600 50  0000 C CNN
F 2 "" H 1400 3750 50  0001 C CNN
F 3 "" H 1400 3750 50  0001 C CNN
	1    1400 3750
	1    0    0    -1  
$EndComp
Text Label 1450 2850 2    60   ~ 0
RESET
Wire Wire Line
	2650 6550 2650 6650
Wire Wire Line
	2650 6650 2750 6650
Wire Wire Line
	2750 6650 2750 6550
Wire Wire Line
	2700 6650 2700 6750
Connection ~ 2700 6650
$Comp
L GND #PWR026
U 1 1 5A69B0F9
P 2700 6750
F 0 "#PWR026" H 2700 6500 50  0001 C CNN
F 1 "GND" H 2700 6600 50  0000 C CNN
F 2 "" H 2700 6750 50  0001 C CNN
F 3 "" H 2700 6750 50  0001 C CNN
	1    2700 6750
	1    0    0    -1  
$EndComp
Wire Wire Line
	4250 3850 4350 3850
Wire Wire Line
	4250 3950 4350 3950
Wire Wire Line
	4250 4050 4350 4050
Text Label 4350 3850 0    60   ~ 0
SPI_SCK
Text Label 4350 3950 0    60   ~ 0
SPI_MOSI
Text Label 4350 4050 0    60   ~ 0
SPI_MISO
Wire Wire Line
	4250 5750 4350 5750
Wire Wire Line
	4250 5850 4350 5850
Text Label 4350 5750 0    60   ~ 0
UART1_RXD
Text Label 4350 5850 0    60   ~ 0
UART1_TXD
Wire Wire Line
	1650 5550 1550 5550
Wire Wire Line
	1550 5650 1650 5650
Text Label 1550 5550 2    60   ~ 0
UART0_RXD
Text Label 1550 5650 2    60   ~ 0
UART0_TXD
Wire Wire Line
	3750 1100 3650 1100
Wire Wire Line
	3650 1200 3750 1200
Wire Wire Line
	3750 1300 3650 1300
Wire Wire Line
	4250 1300 4350 1300
Wire Wire Line
	4250 1200 4350 1200
Wire Wire Line
	4250 1100 4350 1100
Wire Wire Line
	4350 1100 4350 1000
Wire Wire Line
	4350 1300 4350 1400
$Comp
L VCC #PWR027
U 1 1 5A69E716
P 4350 1000
F 0 "#PWR027" H 4350 850 50  0001 C CNN
F 1 "VCC" H 4350 1150 50  0000 C CNN
F 2 "" H 4350 1000 50  0001 C CNN
F 3 "" H 4350 1000 50  0001 C CNN
	1    4350 1000
	1    0    0    -1  
$EndComp
$Comp
L GND #PWR028
U 1 1 5A69E8D3
P 4350 1400
F 0 "#PWR028" H 4350 1150 50  0001 C CNN
F 1 "GND" H 4350 1250 50  0000 C CNN
F 2 "" H 4350 1400 50  0001 C CNN
F 3 "" H 4350 1400 50  0001 C CNN
	1    4350 1400
	1    0    0    -1  
$EndComp
Text Label 4350 1200 0    60   ~ 0
SPI_MOSI
Text Label 3650 1100 2    60   ~ 0
SPI_MISO
Text Label 3650 1200 2    60   ~ 0
SPI_SCK
Text Label 3650 1300 2    60   ~ 0
RESET
$EndSCHEMATC
