EESchema Schematic File Version 2
LIBS:power
LIBS:device
LIBS:transistors
LIBS:conn
LIBS:linear
LIBS:regul
LIBS:74xx
LIBS:cmos4000
LIBS:adc-dac
LIBS:memory
LIBS:xilinx
LIBS:special
LIBS:microcontrollers
LIBS:dsp
LIBS:microchip
LIBS:analog_switches
LIBS:motorola
LIBS:texas
LIBS:intel
LIBS:audio
LIBS:interface
LIBS:digital-audio
LIBS:philips
LIBS:display
LIBS:cypress
LIBS:siliconi
LIBS:opto
LIBS:atmel
LIBS:contrib
LIBS:valves
LIBS:CANTester-v1-cache
EELAYER 27 0
EELAYER END
$Descr A4 11693 8268
encoding utf-8
Sheet 1 1
Title "CANTester v1"
Date "2 jul 2018"
Rev "1.0"
Comp ""
Comment1 ""
Comment2 ""
Comment3 ""
Comment4 ""
$EndDescr
$Comp
L CONN_8 P4
U 1 1 5ACA79AF
P 5300 4050
F 0 "P4" V 5250 4050 60  0000 C CNN
F 1 "PORT_A" V 5350 4050 60  0000 C CNN
F 2 "" H 5300 4050 60  0000 C CNN
F 3 "" H 5300 4050 60  0000 C CNN
	1    5300 4050
	1    0    0    -1  
$EndComp
$Comp
L CONN_8 P5
U 1 1 5ACA79BC
P 5300 4950
F 0 "P5" V 5250 4950 60  0000 C CNN
F 1 "PORT_B" V 5350 4950 60  0000 C CNN
F 2 "" H 5300 4950 60  0000 C CNN
F 3 "" H 5300 4950 60  0000 C CNN
	1    5300 4950
	1    0    0    -1  
$EndComp
$Comp
L CONN_8 P6
U 1 1 5ACA79C2
P 5300 5850
F 0 "P6" V 5250 5850 60  0000 C CNN
F 1 "PORT_C" V 5350 5850 60  0000 C CNN
F 2 "" H 5300 5850 60  0000 C CNN
F 3 "" H 5300 5850 60  0000 C CNN
	1    5300 5850
	1    0    0    -1  
$EndComp
$Comp
L CONN_8 P7
U 1 1 5ACA79C8
P 5300 6750
F 0 "P7" V 5250 6750 60  0000 C CNN
F 1 "PORT_D" V 5350 6750 60  0000 C CNN
F 2 "" H 5300 6750 60  0000 C CNN
F 3 "" H 5300 6750 60  0000 C CNN
	1    5300 6750
	1    0    0    -1  
$EndComp
$Comp
L 7805 U1
U 1 1 5ACA79D0
P 2950 1100
F 0 "U1" H 3100 904 60  0000 C CNN
F 1 "7805" H 2950 1300 60  0000 C CNN
F 2 "" H 2950 1100 60  0000 C CNN
F 3 "" H 2950 1100 60  0000 C CNN
	1    2950 1100
	1    0    0    -1  
$EndComp
$Comp
L C C3
U 1 1 5ACA79DF
P 2400 1350
F 0 "C3" H 2400 1450 40  0000 L CNN
F 1 "100nF" H 2406 1265 40  0000 L CNN
F 2 "~" H 2438 1200 30  0000 C CNN
F 3 "~" H 2400 1350 60  0000 C CNN
	1    2400 1350
	1    0    0    -1  
$EndComp
$Comp
L C C5
U 1 1 5ACA79EE
P 4400 1350
F 0 "C5" H 4400 1450 40  0000 L CNN
F 1 "100nF" H 4406 1265 40  0000 L CNN
F 2 "~" H 4438 1200 30  0000 C CNN
F 3 "~" H 4400 1350 60  0000 C CNN
	1    4400 1350
	1    0    0    -1  
$EndComp
$Comp
L C C6
U 1 1 5ACA79FD
P 4900 1350
F 0 "C6" H 4900 1450 40  0000 L CNN
F 1 "100nF" H 4906 1265 40  0000 L CNN
F 2 "~" H 4938 1200 30  0000 C CNN
F 3 "~" H 4900 1350 60  0000 C CNN
	1    4900 1350
	1    0    0    -1  
$EndComp
$Comp
L MAX232 U2
U 1 1 5ACA7A0C
P 8400 5550
F 0 "U2" H 8400 6400 70  0000 C CNN
F 1 "MAX232" H 8400 4700 70  0000 C CNN
F 2 "" H 8400 5550 60  0000 C CNN
F 3 "" H 8400 5550 60  0000 C CNN
	1    8400 5550
	1    0    0    -1  
$EndComp
$Comp
L CONN_9X2 P8
U 1 1 5ACA7A1B
P 7950 1550
F 0 "P8" H 7950 2000 60  0000 C CNN
F 1 "SJA1000_MODULE" V 7950 1550 50  0000 C CNN
F 2 "" H 7950 1550 60  0000 C CNN
F 3 "" H 7950 1550 60  0000 C CNN
	1    7950 1550
	1    0    0    -1  
$EndComp
$Comp
L CONN_2 P1
U 1 1 5ACA7A2A
P 800 1150
F 0 "P1" V 750 1150 40  0000 C CNN
F 1 "+12V" V 850 1150 40  0000 C CNN
F 2 "" H 800 1150 60  0000 C CNN
F 3 "" H 800 1150 60  0000 C CNN
	1    800  1150
	-1   0    0    -1  
$EndComp
$Comp
L CONN_2 P2
U 1 1 5ACA7A37
P 800 2200
F 0 "P2" V 750 2200 40  0000 C CNN
F 1 "PWR-SW" V 850 2200 40  0000 C CNN
F 2 "" H 800 2200 60  0000 C CNN
F 3 "" H 800 2200 60  0000 C CNN
	1    800  2200
	-1   0    0    -1  
$EndComp
$Comp
L CONN_2 P12
U 1 1 5ACA7A45
P 10550 1800
F 0 "P12" V 10500 1800 40  0000 C CNN
F 1 "RES_ON" V 10600 1800 40  0000 C CNN
F 2 "" H 10550 1800 60  0000 C CNN
F 3 "" H 10550 1800 60  0000 C CNN
	1    10550 1800
	1    0    0    -1  
$EndComp
$Comp
L CONN_2 P11
U 1 1 5ACA7A52
P 10550 1300
F 0 "P11" V 10500 1300 40  0000 C CNN
F 1 "CAN_BUS" V 10600 1300 40  0000 C CNN
F 2 "" H 10550 1300 60  0000 C CNN
F 3 "" H 10550 1300 60  0000 C CNN
	1    10550 1300
	1    0    0    -1  
$EndComp
$Comp
L CONN_4 P10
U 1 1 5ACA7A60
P 9200 1550
F 0 "P10" V 9150 1550 50  0000 C CNN
F 1 "SJA_OUT" V 9250 1550 50  0000 C CNN
F 2 "" H 9200 1550 60  0000 C CNN
F 3 "" H 9200 1550 60  0000 C CNN
	1    9200 1550
	-1   0    0    -1  
$EndComp
Text Notes 6950 750  0    60   ~ 0
SJA1000 Module\n\nModule contains NXP SJA1000 and TJA1050
$Comp
L CONN_3 K1
U 1 1 5ACA7A6F
P 1650 6150
F 0 "K1" V 1600 6150 50  0000 C CNN
F 1 "CTRL" V 1700 6150 40  0000 C CNN
F 2 "" H 1650 6150 60  0000 C CNN
F 3 "" H 1650 6150 60  0000 C CNN
	1    1650 6150
	-1   0    0    -1  
$EndComp
$Comp
L ATMEGA1284P-P IC1
U 1 1 5ACA7A7E
P 3700 5400
F 0 "IC1" H 2850 7280 40  0000 L BNN
F 1 "ATMEGA1284P-P" H 4100 3450 40  0000 L BNN
F 2 "DIL40" H 3700 5400 30  0000 C CIN
F 3 "" H 3700 5400 60  0000 C CNN
	1    3700 5400
	1    0    0    -1  
$EndComp
$Comp
L CRYSTAL X1
U 1 1 5ACA7AA1
P 1550 4700
F 0 "X1" H 1550 4850 60  0000 C CNN
F 1 "16MHz" H 1550 4550 60  0000 C CNN
F 2 "~" H 1550 4700 60  0000 C CNN
F 3 "~" H 1550 4700 60  0000 C CNN
	1    1550 4700
	1    0    0    -1  
$EndComp
$Comp
L C C1
U 1 1 5ACA7AAE
P 1150 5000
F 0 "C1" H 1150 5100 40  0000 L CNN
F 1 "22pF" H 1156 4915 40  0000 L CNN
F 2 "~" H 1188 4850 30  0000 C CNN
F 3 "~" H 1150 5000 60  0000 C CNN
	1    1150 5000
	1    0    0    -1  
$EndComp
$Comp
L C C2
U 1 1 5ACA7AB4
P 1950 5000
F 0 "C2" H 1950 5100 40  0000 L CNN
F 1 "22pF" H 1956 4915 40  0000 L CNN
F 2 "~" H 1988 4850 30  0000 C CNN
F 3 "~" H 1950 5000 60  0000 C CNN
	1    1950 5000
	1    0    0    -1  
$EndComp
$Comp
L R R1
U 1 1 5ACA7ABC
P 2500 3350
F 0 "R1" V 2580 3350 40  0000 C CNN
F 1 "10k" V 2507 3351 40  0000 C CNN
F 2 "~" V 2430 3350 30  0000 C CNN
F 3 "~" H 2500 3350 30  0000 C CNN
	1    2500 3350
	1    0    0    -1  
$EndComp
Wire Wire Line
	1900 1050 2550 1050
Wire Wire Line
	2400 1050 2400 1150
Wire Wire Line
	1900 1050 1900 2300
Wire Wire Line
	1900 2300 1150 2300
Connection ~ 2400 1050
Wire Wire Line
	1150 2100 1800 2100
Wire Wire Line
	1800 2100 1800 1050
Wire Wire Line
	1800 1050 1150 1050
Wire Wire Line
	1150 1250 1250 1250
Wire Wire Line
	1250 1250 1250 1550
Wire Wire Line
	2950 1350 2950 1550
$Comp
L GND #PWR9
U 1 1 5ACA7B6D
P 2950 1550
F 0 "#PWR9" H 2950 1550 30  0001 C CNN
F 1 "GND" H 2950 1480 30  0001 C CNN
F 2 "" H 2950 1550 60  0000 C CNN
F 3 "" H 2950 1550 60  0000 C CNN
	1    2950 1550
	1    0    0    -1  
$EndComp
$Comp
L GND #PWR7
U 1 1 5ACA7B7A
P 2400 1550
F 0 "#PWR7" H 2400 1550 30  0001 C CNN
F 1 "GND" H 2400 1480 30  0001 C CNN
F 2 "" H 2400 1550 60  0000 C CNN
F 3 "" H 2400 1550 60  0000 C CNN
	1    2400 1550
	1    0    0    -1  
$EndComp
$Comp
L GND #PWR2
U 1 1 5ACA7B81
P 1250 1550
F 0 "#PWR2" H 1250 1550 30  0001 C CNN
F 1 "GND" H 1250 1480 30  0001 C CNN
F 2 "" H 1250 1550 60  0000 C CNN
F 3 "" H 1250 1550 60  0000 C CNN
	1    1250 1550
	1    0    0    -1  
$EndComp
Wire Wire Line
	1250 4700 1150 4700
Wire Wire Line
	1150 4100 1150 4800
Wire Wire Line
	1150 5200 1150 5300
Wire Wire Line
	1950 5200 1950 5300
Wire Wire Line
	1850 4700 1950 4700
Wire Wire Line
	1950 4500 1950 4800
$Comp
L GND #PWR3
U 1 1 5ACA7C21
P 1950 5300
F 0 "#PWR3" H 1950 5300 30  0001 C CNN
F 1 "GND" H 1950 5230 30  0001 C CNN
F 2 "" H 1950 5300 60  0000 C CNN
F 3 "" H 1950 5300 60  0000 C CNN
	1    1950 5300
	1    0    0    -1  
$EndComp
$Comp
L GND #PWR1
U 1 1 5ACA7C27
P 1150 5300
F 0 "#PWR1" H 1150 5300 30  0001 C CNN
F 1 "GND" H 1150 5230 30  0001 C CNN
F 2 "" H 1150 5300 60  0000 C CNN
F 3 "" H 1150 5300 60  0000 C CNN
	1    1150 5300
	1    0    0    -1  
$EndComp
$Comp
L GND #PWR12
U 1 1 5ACA7C5C
P 3500 7400
F 0 "#PWR12" H 3500 7400 30  0001 C CNN
F 1 "GND" H 3500 7330 30  0001 C CNN
F 2 "" H 3500 7400 60  0000 C CNN
F 3 "" H 3500 7400 60  0000 C CNN
	1    3500 7400
	1    0    0    -1  
$EndComp
$Comp
L GND #PWR15
U 1 1 5ACA7C69
P 3700 7400
F 0 "#PWR15" H 3700 7400 30  0001 C CNN
F 1 "GND" H 3700 7330 30  0001 C CNN
F 2 "" H 3700 7400 60  0000 C CNN
F 3 "" H 3700 7400 60  0000 C CNN
	1    3700 7400
	1    0    0    -1  
$EndComp
$Comp
L GND #PWR17
U 1 1 5ACA7C6F
P 4400 1550
F 0 "#PWR17" H 4400 1550 30  0001 C CNN
F 1 "GND" H 4400 1480 30  0001 C CNN
F 2 "" H 4400 1550 60  0000 C CNN
F 3 "" H 4400 1550 60  0000 C CNN
	1    4400 1550
	1    0    0    -1  
$EndComp
$Comp
L GND #PWR19
U 1 1 5ACA7C84
P 4900 1550
F 0 "#PWR19" H 4900 1550 30  0001 C CNN
F 1 "GND" H 4900 1480 30  0001 C CNN
F 2 "" H 4900 1550 60  0000 C CNN
F 3 "" H 4900 1550 60  0000 C CNN
	1    4900 1550
	1    0    0    -1  
$EndComp
$Comp
L CP1 C9
U 1 1 5ACA7C9B
P 9500 5250
F 0 "C9" H 9550 5350 50  0000 L CNN
F 1 "1uF" H 9550 5150 50  0000 L CNN
F 2 "~" H 9500 5250 60  0000 C CNN
F 3 "~" H 9500 5250 60  0000 C CNN
	1    9500 5250
	0    -1   -1   0   
$EndComp
$Comp
L CP1 C10
U 1 1 5ACA7CA8
P 9500 5750
F 0 "C10" H 9550 5850 50  0000 L CNN
F 1 "1uF" H 9550 5650 50  0000 L CNN
F 2 "~" H 9500 5750 60  0000 C CNN
F 3 "~" H 9500 5750 60  0000 C CNN
	1    9500 5750
	0    1    1    0   
$EndComp
$Comp
L CP1 C7
U 1 1 5ACA7CAE
P 7400 5050
F 0 "C7" H 7450 5150 50  0000 L CNN
F 1 "1uF" H 7450 4950 50  0000 L CNN
F 2 "~" H 7400 5050 60  0000 C CNN
F 3 "~" H 7400 5050 60  0000 C CNN
	1    7400 5050
	1    0    0    -1  
$EndComp
$Comp
L CP1 C8
U 1 1 5ACA7CB4
P 7400 5550
F 0 "C8" H 7450 5650 50  0000 L CNN
F 1 "1uF" H 7450 5450 50  0000 L CNN
F 2 "~" H 7400 5550 60  0000 C CNN
F 3 "~" H 7400 5550 60  0000 C CNN
	1    7400 5550
	1    0    0    -1  
$EndComp
Text Notes 8450 4300 0    60   ~ 0
Serial CAN Section (SLCAN)
Wire Wire Line
	4700 3700 4950 3700
Wire Wire Line
	4700 3800 4950 3800
Wire Wire Line
	4700 3900 4950 3900
Wire Wire Line
	4700 4000 4950 4000
Wire Wire Line
	4700 4100 4950 4100
Wire Wire Line
	4700 4200 4950 4200
Wire Wire Line
	4950 4300 4700 4300
Wire Wire Line
	4700 4400 4950 4400
Wire Wire Line
	4700 7100 4950 7100
Wire Wire Line
	4950 7000 4700 7000
Wire Wire Line
	4700 6900 4950 6900
Wire Wire Line
	4700 6800 4950 6800
Wire Wire Line
	4700 6700 4950 6700
Wire Wire Line
	4950 6600 4700 6600
Wire Wire Line
	4700 6500 4950 6500
Wire Wire Line
	4950 6400 4700 6400
Wire Wire Line
	4950 6200 4700 6200
Wire Wire Line
	4700 6100 4950 6100
Wire Wire Line
	4950 6000 4700 6000
Wire Wire Line
	4700 5900 4950 5900
Wire Wire Line
	4700 5800 4950 5800
Wire Wire Line
	4700 5700 4950 5700
Wire Wire Line
	4700 5600 4950 5600
Wire Wire Line
	4700 5500 4950 5500
Wire Wire Line
	4700 5300 4950 5300
Wire Wire Line
	4950 5200 4700 5200
Wire Wire Line
	4700 5100 4950 5100
Wire Wire Line
	4950 5000 4700 5000
Wire Wire Line
	4700 4900 4950 4900
Wire Wire Line
	4950 4800 4700 4800
Wire Wire Line
	4700 4700 4950 4700
Wire Wire Line
	4950 4600 4700 4600
$Comp
L CP1 C4
U 1 1 5ACA81B8
P 3500 1350
F 0 "C4" H 3550 1450 50  0000 L CNN
F 1 "100nF" H 3550 1250 50  0000 L CNN
F 2 "~" H 3500 1350 60  0000 C CNN
F 3 "~" H 3500 1350 60  0000 C CNN
	1    3500 1350
	1    0    0    -1  
$EndComp
Wire Wire Line
	3350 1050 3700 1050
Wire Wire Line
	3500 1050 3500 1150
Connection ~ 3500 1050
$Comp
L GND #PWR10
U 1 1 5ACA82D7
P 3500 1550
F 0 "#PWR10" H 3500 1550 30  0001 C CNN
F 1 "GND" H 3500 1480 30  0001 C CNN
F 2 "" H 3500 1550 60  0000 C CNN
F 3 "" H 3500 1550 60  0000 C CNN
	1    3500 1550
	1    0    0    -1  
$EndComp
Wire Wire Line
	2350 3700 2700 3700
Wire Wire Line
	2500 3700 2500 3600
Connection ~ 2500 3700
Wire Wire Line
	2700 4100 1150 4100
Connection ~ 1150 4700
Wire Wire Line
	2700 4500 1950 4500
Connection ~ 1950 4700
$Comp
L CONN_3X2 P3
U 1 1 5ACA83EF
P 1650 7200
F 0 "P3" H 1650 7450 50  0000 C CNN
F 1 "ISP6" V 1650 7250 40  0000 C CNN
F 2 "" H 1650 7200 60  0000 C CNN
F 3 "" H 1650 7200 60  0000 C CNN
	1    1650 7200
	1    0    0    -1  
$EndComp
Wire Wire Line
	1250 7050 1150 7050
Wire Wire Line
	1150 7150 1250 7150
Wire Wire Line
	1150 7250 1250 7250
Wire Wire Line
	2050 7050 2150 7050
Wire Wire Line
	2050 7150 2150 7150
Wire Wire Line
	2050 7250 2150 7250
$Comp
L VCC #PWR8
U 1 1 5ACA857E
P 2500 3100
F 0 "#PWR8" H 2500 3200 30  0001 C CNN
F 1 "VCC" H 2500 3200 30  0000 C CNN
F 2 "" H 2500 3100 60  0000 C CNN
F 3 "" H 2500 3100 60  0000 C CNN
	1    2500 3100
	1    0    0    -1  
$EndComp
$Comp
L VCC #PWR11
U 1 1 5ACA858B
P 3500 3400
F 0 "#PWR11" H 3500 3500 30  0001 C CNN
F 1 "VCC" H 3500 3500 30  0000 C CNN
F 2 "" H 3500 3400 60  0000 C CNN
F 3 "" H 3500 3400 60  0000 C CNN
	1    3500 3400
	1    0    0    -1  
$EndComp
$Comp
L VCC #PWR14
U 1 1 5ACA8591
P 3700 3400
F 0 "#PWR14" H 3700 3500 30  0001 C CNN
F 1 "VCC" H 3700 3500 30  0000 C CNN
F 2 "" H 3700 3400 60  0000 C CNN
F 3 "" H 3700 3400 60  0000 C CNN
	1    3700 3400
	1    0    0    -1  
$EndComp
$Comp
L VCC #PWR16
U 1 1 5ACA8597
P 4400 1150
F 0 "#PWR16" H 4400 1250 30  0001 C CNN
F 1 "VCC" H 4400 1250 30  0000 C CNN
F 2 "" H 4400 1150 60  0000 C CNN
F 3 "" H 4400 1150 60  0000 C CNN
	1    4400 1150
	1    0    0    -1  
$EndComp
$Comp
L VCC #PWR18
U 1 1 5ACA859D
P 4900 1150
F 0 "#PWR18" H 4900 1250 30  0001 C CNN
F 1 "VCC" H 4900 1250 30  0000 C CNN
F 2 "" H 4900 1150 60  0000 C CNN
F 3 "" H 4900 1150 60  0000 C CNN
	1    4900 1150
	1    0    0    -1  
$EndComp
Text Label 2350 3700 2    60   ~ 0
RESET
Wire Wire Line
	2000 6050 2100 6050
Wire Wire Line
	2000 6150 2200 6150
Wire Wire Line
	2000 6250 2200 6250
Text Label 1150 7050 2    60   ~ 0
MISO
Text Label 1150 7150 2    60   ~ 0
SCK
Text Label 1150 7250 2    60   ~ 0
RESET
Text Label 2150 7150 0    60   ~ 0
MOSI
Wire Wire Line
	2150 7250 2150 7350
Wire Wire Line
	2150 7050 2150 6950
$Comp
L VCC #PWR5
U 1 1 5ACB0E74
P 2150 6950
F 0 "#PWR5" H 2150 7050 30  0001 C CNN
F 1 "VCC" H 2150 7050 30  0000 C CNN
F 2 "" H 2150 6950 60  0000 C CNN
F 3 "" H 2150 6950 60  0000 C CNN
	1    2150 6950
	1    0    0    -1  
$EndComp
$Comp
L GND #PWR6
U 1 1 5ACB0E83
P 2150 7350
F 0 "#PWR6" H 2150 7350 30  0001 C CNN
F 1 "GND" H 2150 7280 30  0001 C CNN
F 2 "" H 2150 7350 60  0000 C CNN
F 3 "" H 2150 7350 60  0000 C CNN
	1    2150 7350
	1    0    0    -1  
$EndComp
Wire Wire Line
	10200 1200 9850 1200
Wire Wire Line
	9850 1200 9850 1400
Wire Wire Line
	9850 1400 9550 1400
Wire Wire Line
	10200 1400 9950 1400
Wire Wire Line
	9950 1400 9950 1500
Wire Wire Line
	9950 1500 9550 1500
Wire Wire Line
	10200 1900 9850 1900
Wire Wire Line
	9850 1900 9850 1700
Wire Wire Line
	9850 1700 9550 1700
Wire Wire Line
	9550 1600 9950 1600
Wire Wire Line
	9950 1600 9950 1700
Wire Wire Line
	9950 1700 10200 1700
Text Notes 9250 2150 0    60   ~ 0
CAN Bus Termination Resistor Jumper\n\nopen = no termination\nclose = 120 Ohm termination
Text Notes 10600 700  2    60   ~ 0
CAN Bus Header\n\nconnect to male DB9\nCAN_H to DB9 pin 7\nCAN_L to DB9 pin 2
$Comp
L CONN_3 K2
U 1 1 5ACB1428
P 10900 6150
F 0 "K2" V 10850 6150 50  0000 C CNN
F 1 "SLCAN_BUS" V 10950 6150 40  0000 C CNN
F 2 "" H 10900 6150 60  0000 C CNN
F 3 "" H 10900 6150 60  0000 C CNN
	1    10900 6150
	1    0    0    -1  
$EndComp
Text Label 4700 5500 0    60   ~ 0
SCL
Text Label 4700 5600 0    60   ~ 0
SDA
Text Label 4700 6400 0    60   ~ 0
RXD0
Text Label 4700 6500 0    60   ~ 0
TXD0
Text Label 4700 6600 0    60   ~ 0
RXD1
Text Label 4700 6700 0    60   ~ 0
TXD1
Wire Wire Line
	9200 5250 9300 5250
Wire Wire Line
	9200 5750 9300 5750
Wire Wire Line
	9700 5750 9900 5750
Wire Wire Line
	9900 5450 9900 5850
Wire Wire Line
	9900 5250 9700 5250
Wire Wire Line
	9900 4750 9900 5250
$Comp
L VCC #PWR24
U 1 1 5ACB1612
P 9900 4750
F 0 "#PWR24" H 9900 4850 30  0001 C CNN
F 1 "VCC" H 9900 4850 30  0000 C CNN
F 2 "" H 9900 4750 60  0000 C CNN
F 3 "" H 9900 4750 60  0000 C CNN
	1    9900 4750
	1    0    0    -1  
$EndComp
$Comp
L GND #PWR25
U 1 1 5ACB1621
P 9900 5850
F 0 "#PWR25" H 9900 5850 30  0001 C CNN
F 1 "GND" H 9900 5780 30  0001 C CNN
F 2 "" H 9900 5850 60  0000 C CNN
F 3 "" H 9900 5850 60  0000 C CNN
	1    9900 5850
	1    0    0    -1  
$EndComp
Wire Wire Line
	7400 4850 7600 4850
Wire Wire Line
	7600 5250 7400 5250
Wire Wire Line
	7400 5350 7600 5350
Wire Wire Line
	7400 5750 7600 5750
Wire Wire Line
	9200 4850 9900 4850
Connection ~ 9900 4850
Wire Wire Line
	9200 5450 9900 5450
Connection ~ 9900 5750
Wire Wire Line
	7350 1200 7550 1200
Wire Wire Line
	7350 1300 7550 1300
Wire Wire Line
	7350 1400 7550 1400
Wire Wire Line
	7350 1500 7550 1500
Wire Wire Line
	7350 1600 7550 1600
Wire Wire Line
	7350 1700 7550 1700
Wire Wire Line
	7350 1800 7550 1800
Wire Wire Line
	7350 1900 7550 1900
Wire Wire Line
	7450 2000 7550 2000
Wire Wire Line
	8350 1200 8550 1200
Wire Wire Line
	8350 1300 8550 1300
Wire Wire Line
	8350 1400 8550 1400
Wire Wire Line
	8350 1500 8550 1500
Wire Wire Line
	8350 1600 8550 1600
Wire Wire Line
	8350 1700 8550 1700
Wire Wire Line
	8350 1800 8550 1800
Wire Wire Line
	8350 1900 8450 1900
Wire Wire Line
	8350 2000 8450 2000
Wire Wire Line
	8450 1900 8450 2200
Connection ~ 8450 2000
Wire Wire Line
	7450 1800 7450 2200
$Comp
L GND #PWR22
U 1 1 5ACB2235
P 8450 2200
F 0 "#PWR22" H 8450 2200 30  0001 C CNN
F 1 "GND" H 8450 2130 30  0001 C CNN
F 2 "" H 8450 2200 60  0000 C CNN
F 3 "" H 8450 2200 60  0000 C CNN
	1    8450 2200
	1    0    0    -1  
$EndComp
$Comp
L VCC #PWR20
U 1 1 5ACB22CA
P 7450 2200
F 0 "#PWR20" H 7450 2300 30  0001 C CNN
F 1 "VCC" H 7450 2300 30  0000 C CNN
F 2 "" H 7450 2200 60  0000 C CNN
F 3 "" H 7450 2200 60  0000 C CNN
	1    7450 2200
	-1   0    0    1   
$EndComp
Text Label 8550 1200 0    60   ~ 0
AD1
Text Label 8550 1300 0    60   ~ 0
AD3
Text Label 8550 1400 0    60   ~ 0
AD5
Text Label 8550 1500 0    60   ~ 0
AD7
Text Label 8550 1600 0    60   ~ 0
CS
Text Label 8550 1700 0    60   ~ 0
WR
Text Label 8550 1800 0    60   ~ 0
RST
Text Label 7350 1200 2    60   ~ 0
AD0
Text Label 7350 1300 2    60   ~ 0
AD2
Text Label 7350 1400 2    60   ~ 0
AD4
Text Label 7350 1500 2    60   ~ 0
AD6
Text Label 7350 1600 2    60   ~ 0
ALE
Text Label 7350 1700 2    60   ~ 0
RD
Text Label 7350 1800 2    60   ~ 0
MOD
Text Label 7350 1900 2    60   ~ 0
INT
Text Label 9550 1400 0    60   ~ 0
CAN_H
Text Label 9550 1500 0    60   ~ 0
CAN_L
Text Label 9550 1600 0    60   ~ 0
CAN_L
Text Label 9550 1700 0    60   ~ 0
RES_ON
Text Notes 6950 1750 2    60   ~ 0
MOD pin connected\nto VCC (Intel mode)
Text Label 4700 5300 0    60   ~ 0
SCK
Text Label 4700 5200 0    60   ~ 0
MISO
Text Label 4700 5100 0    60   ~ 0
MOSI
Connection ~ 7450 2000
Connection ~ 7450 1800
Text Label 4700 3700 0    60   ~ 0
AD0
Text Label 4700 3800 0    60   ~ 0
AD1
Text Label 4700 3900 0    60   ~ 0
AD2
Text Label 4700 4000 0    60   ~ 0
AD3
Text Label 4700 4100 0    60   ~ 0
AD4
Text Label 4700 4200 0    60   ~ 0
AD5
Text Label 4700 4300 0    60   ~ 0
AD6
Text Label 4700 4400 0    60   ~ 0
AD7
Text Label 4700 5700 0    60   ~ 0
CS
Text Label 4700 5800 0    60   ~ 0
ALE
Text Label 4700 5900 0    60   ~ 0
WR
Text Label 4700 6000 0    60   ~ 0
RD
Text Label 4700 6100 0    60   ~ 0
RST
Text Label 4700 4800 0    60   ~ 0
INT
Wire Notes Line
	7050 7200 7050 2700
Wire Notes Line
	5450 500  5450 2700
$Comp
L VCC #PWR13
U 1 1 5ACB2F5A
P 3700 1050
F 0 "#PWR13" H 3700 1150 30  0001 C CNN
F 1 "VCC" H 3700 1150 30  0000 C CNN
F 2 "" H 3700 1050 60  0000 C CNN
F 3 "" H 3700 1050 60  0000 C CNN
	1    3700 1050
	0    1    1    0   
$EndComp
Wire Wire Line
	7600 5950 7400 5950
Wire Wire Line
	7600 6150 7400 6150
Wire Wire Line
	9200 5950 9900 5950
Wire Wire Line
	9200 6150 10550 6150
Wire Wire Line
	9900 6050 10550 6050
Wire Wire Line
	10550 6250 10350 6250
Wire Wire Line
	10350 6250 10350 6450
$Comp
L GND #PWR27
U 1 1 5ACF0EC6
P 10350 6450
F 0 "#PWR27" H 10350 6450 30  0001 C CNN
F 1 "GND" H 10350 6380 30  0001 C CNN
F 2 "" H 10350 6450 60  0000 C CNN
F 3 "" H 10350 6450 60  0000 C CNN
	1    10350 6450
	1    0    0    -1  
$EndComp
Text Label 10550 6050 2    60   ~ 0
SLCAN_TXD
Text Label 10550 6150 2    60   ~ 0
SLCAN_RXD
Text Notes 11150 5300 2    60   ~ 0
SLCAN Bus Header\n\nconnect to female DB9\n\nSLCAN_TXD	to DB9 pin 2\nSLCAN_RXD	to DB9 pin 3\nGND		to DB9 pin 5
Wire Wire Line
	2100 6050 2100 5950
$Comp
L GND #PWR4
U 1 1 5ACF1202
P 2100 5950
F 0 "#PWR4" H 2100 5950 30  0001 C CNN
F 1 "GND" H 2100 5880 30  0001 C CNN
F 2 "" H 2100 5950 60  0000 C CNN
F 3 "" H 2100 5950 60  0000 C CNN
	1    2100 5950
	-1   0    0    1   
$EndComp
Text Label 2200 6250 0    60   ~ 0
RXD0
Text Label 2200 6150 0    60   ~ 0
TXD0
Text Notes 1200 6700 0    60   ~ 0
Programming Header
Text Notes 1150 5750 0    60   ~ 0
Control Interface Header
Text Label 7400 5950 2    60   ~ 0
TXD0
Text Label 7400 6150 2    60   ~ 0
RXD0
Wire Wire Line
	9900 5950 9900 6050
$Comp
L CONN_4 P13
U 1 1 5ACF1798
P 10550 3400
F 0 "P13" V 10500 3400 50  0000 C CNN
F 1 "CAN_SIG" V 10600 3400 50  0000 C CNN
F 2 "" H 10550 3400 60  0000 C CNN
F 3 "" H 10550 3400 60  0000 C CNN
	1    10550 3400
	1    0    0    -1  
$EndComp
Wire Notes Line
	7050 2700 500  2700
Wire Notes Line
	7050 4000 11200 4000
Wire Wire Line
	10200 3250 10000 3250
Wire Wire Line
	10200 3450 10000 3450
Wire Wire Line
	10200 3350 10100 3350
Wire Wire Line
	10100 3350 10100 3650
Wire Wire Line
	10100 3550 10200 3550
Connection ~ 10100 3550
$Comp
L GND #PWR26
U 1 1 5ACF1AE2
P 10100 3650
F 0 "#PWR26" H 10100 3650 30  0001 C CNN
F 1 "GND" H 10100 3580 30  0001 C CNN
F 2 "" H 10100 3650 60  0000 C CNN
F 3 "" H 10100 3650 60  0000 C CNN
	1    10100 3650
	1    0    0    -1  
$EndComp
Text Label 10000 3250 2    60   ~ 0
CAN_L
Text Label 10000 3450 2    60   ~ 0
CAN_H
Text Notes 10850 2850 2    60   ~ 0
CAN Signal Header\n\nconenct to BNC
Text Notes 6800 5500 2    60   ~ 0
SCL/SDA/VCC/GND Pins\nconnect to SSD1306 OLED
Text Notes 600  1900 0    60   ~ 0
Power Switch Header
Text Notes 600  850  0    60   ~ 0
Power Input Header (+12V)
$Comp
L NPN Q1
U 1 1 5B39EF5A
P 8250 3450
F 0 "Q1" H 8250 3300 50  0000 R CNN
F 1 "NPN" H 8250 3600 50  0000 R CNN
F 2 "~" H 8250 3450 60  0000 C CNN
F 3 "~" H 8250 3450 60  0000 C CNN
	1    8250 3450
	1    0    0    -1  
$EndComp
$Comp
L R R2
U 1 1 5B39EF7A
P 7700 3450
F 0 "R2" V 7780 3450 40  0000 C CNN
F 1 "100" V 7707 3451 40  0000 C CNN
F 2 "~" V 7630 3450 30  0000 C CNN
F 3 "~" H 7700 3450 30  0000 C CNN
	1    7700 3450
	0    -1   -1   0   
$EndComp
Wire Wire Line
	8350 3650 8350 3750
$Comp
L GND #PWR21
U 1 1 5B39F028
P 8350 3750
F 0 "#PWR21" H 8350 3750 30  0001 C CNN
F 1 "GND" H 8350 3680 30  0001 C CNN
F 2 "" H 8350 3750 60  0000 C CNN
F 3 "" H 8350 3750 60  0000 C CNN
	1    8350 3750
	1    0    0    -1  
$EndComp
Wire Wire Line
	7950 3450 8050 3450
$Comp
L CONN_4 P9
U 1 1 5B39F14F
P 9100 3450
F 0 "P9" V 9050 3450 50  0000 C CNN
F 1 "RELAY" V 9150 3450 50  0000 C CNN
F 2 "" H 9100 3450 60  0000 C CNN
F 3 "" H 9100 3450 60  0000 C CNN
	1    9100 3450
	1    0    0    -1  
$EndComp
Wire Wire Line
	8750 3600 8650 3600
Wire Wire Line
	8650 3600 8650 3800
Wire Wire Line
	8650 3800 9450 3800
Wire Wire Line
	9450 3800 9450 2950
Wire Wire Line
	8750 3300 8650 3300
Wire Wire Line
	8650 3300 8650 3100
Wire Wire Line
	8650 3100 9350 3100
Wire Wire Line
	9350 3100 9350 2950
Wire Wire Line
	8750 3500 8500 3500
Wire Wire Line
	8500 3500 8500 3750
$Comp
L VCC #PWR23
U 1 1 5B39F428
P 8500 3750
F 0 "#PWR23" H 8500 3850 30  0001 C CNN
F 1 "VCC" H 8500 3850 30  0000 C CNN
F 2 "" H 8500 3750 60  0000 C CNN
F 3 "" H 8500 3750 60  0000 C CNN
	1    8500 3750
	-1   0    0    1   
$EndComp
Wire Wire Line
	8750 3400 8500 3400
Wire Wire Line
	8500 3400 8500 3100
Wire Wire Line
	8500 3100 8350 3100
Wire Wire Line
	8350 3100 8350 3250
Text Label 9350 2950 1    60   ~ 0
CAN_L
Text Label 9450 2950 1    60   ~ 0
RES_ON
Wire Wire Line
	7450 3450 7250 3450
Text Label 7450 3450 2    60   ~ 0
R_ON
Text Label 4700 6200 0    60   ~ 0
R_ON
$EndSCHEMATC
